Time of Error: 27-04-2020 06:49 PM
URL: http://localhost:4933/AdminCms/Addvideo
Form: 
QueryString: 
Server Name: localhost
User Agent: Mozilla/5.0 (Windows NT 10.0; Win64; x64) AppleWebKit/537.36 (KHTML, like Gecko) Chrome/81.0.4044.122 Safari/537.36
User IP: ::1
User Host Name: ::1
Message: Column 'Category' does not belong to table .
Source: System.Data
TargetSite: System.Data.DataColumn GetDataColumn(System.String)
StackTrace:    at System.Data.DataRow.GetDataColumn(String columnName)
   at System.Data.DataRow.get_Item(String columnName)
   at Astaguru.Controllers.AdminCmsController.GetvideoList() in F:\Ajay\project\Astaguru\AstaGuru18_3_2020_Home\AstaGuru18_3_2020_Home\astaguru_26_01_2020_current\astaguru\Astaguru\Controllers\AdminCmsController.cs:line 4233




Time of Error: 27-04-2020 06:49 PM
URL: http://localhost:4933/AdminCms/Addvideo
Form: 
QueryString: 
Server Name: localhost
User Agent: Mozilla/5.0 (Windows NT 10.0; Win64; x64) AppleWebKit/537.36 (KHTML, like Gecko) Chrome/81.0.4044.122 Safari/537.36
User IP: ::1
User Host Name: ::1
Message: Column 'Category' does not belong to table .
Source: System.Data
TargetSite: System.Data.DataColumn GetDataColumn(System.String)
StackTrace:    at System.Data.DataRow.GetDataColumn(String columnName)
   at System.Data.DataRow.get_Item(String columnName)
   at Astaguru.Controllers.AdminCmsController.GetvideoList() in F:\Ajay\project\Astaguru\AstaGuru18_3_2020_Home\AstaGuru18_3_2020_Home\astaguru_26_01_2020_current\astaguru\Astaguru\Controllers\AdminCmsController.cs:line 4233




Time of Error: 27-04-2020 06:49 PM
URL: http://localhost:4933/AdminCms/Addvideo
Form: 
QueryString: 
Server Name: localhost
User Agent: Mozilla/5.0 (Windows NT 10.0; Win64; x64) AppleWebKit/537.36 (KHTML, like Gecko) Chrome/81.0.4044.122 Safari/537.36
User IP: ::1
User Host Name: ::1
Message: Column 'Category' does not belong to table .
Source: System.Data
TargetSite: System.Data.DataColumn GetDataColumn(System.String)
StackTrace:    at System.Data.DataRow.GetDataColumn(String columnName)
   at System.Data.DataRow.get_Item(String columnName)
   at Astaguru.Controllers.AdminCmsController.GetvideoList() in F:\Ajay\project\Astaguru\AstaGuru18_3_2020_Home\AstaGuru18_3_2020_Home\astaguru_26_01_2020_current\astaguru\Astaguru\Controllers\AdminCmsController.cs:line 4233




