Time of Error: 14-04-2020 02:25 PM
URL: http://localhost:4933/AdminCms/ProxyBidApproval
Form: 
QueryString: 
Server Name: localhost
User Agent: Mozilla/5.0 (Windows NT 10.0; Win64; x64) AppleWebKit/537.36 (KHTML, like Gecko) Chrome/80.0.3987.163 Safari/537.36
User IP: ::1
User Host Name: ::1
Message: String was not recognized as a valid DateTime.
Source: mscorlib
TargetSite: System.DateTime Parse(System.String, System.Globalization.DateTimeFormatInfo, System.Globalization.DateTimeStyles)
StackTrace:    at System.DateTimeParse.Parse(String s, DateTimeFormatInfo dtfi, DateTimeStyles styles)
   at System.Convert.ToDateTime(String value)
   at Astaguru.Controllers.AdminCmsController.getProxyBidApprovalList() in F:\Ajay\project\Astaguru\AstaGuru18_3_2020_Home\AstaGuru18_3_2020_Home\astaguru_26_01_2020_current\astaguru\Astaguru\Controllers\AdminCmsController.cs:line 2894




Time of Error: 14-04-2020 02:25 PM
URL: http://localhost:4933/AdminCms/ProxyBidApproval
Form: 
QueryString: 
Server Name: localhost
User Agent: Mozilla/5.0 (Windows NT 10.0; Win64; x64) AppleWebKit/537.36 (KHTML, like Gecko) Chrome/80.0.3987.163 Safari/537.36
User IP: ::1
User Host Name: ::1
Message: String was not recognized as a valid DateTime.
Source: mscorlib
TargetSite: System.DateTime Parse(System.String, System.Globalization.DateTimeFormatInfo, System.Globalization.DateTimeStyles)
StackTrace:    at System.DateTimeParse.Parse(String s, DateTimeFormatInfo dtfi, DateTimeStyles styles)
   at System.Convert.ToDateTime(String value)
   at Astaguru.Controllers.AdminCmsController.getProxyBidApprovalList() in F:\Ajay\project\Astaguru\AstaGuru18_3_2020_Home\AstaGuru18_3_2020_Home\astaguru_26_01_2020_current\astaguru\Astaguru\Controllers\AdminCmsController.cs:line 2894




Time of Error: 14-04-2020 02:26 PM
URL: http://localhost:4933/AdminCms/ProxyBidApproval
Form: 
QueryString: 
Server Name: localhost
User Agent: Mozilla/5.0 (Windows NT 10.0; Win64; x64) AppleWebKit/537.36 (KHTML, like Gecko) Chrome/80.0.3987.163 Safari/537.36
User IP: ::1
User Host Name: ::1
Message: String was not recognized as a valid DateTime.
Source: mscorlib
TargetSite: System.DateTime Parse(System.String, System.Globalization.DateTimeFormatInfo, System.Globalization.DateTimeStyles)
StackTrace:    at System.DateTimeParse.Parse(String s, DateTimeFormatInfo dtfi, DateTimeStyles styles)
   at System.Convert.ToDateTime(String value)
   at Astaguru.Controllers.AdminCmsController.getProxyBidApprovalList() in F:\Ajay\project\Astaguru\AstaGuru18_3_2020_Home\AstaGuru18_3_2020_Home\astaguru_26_01_2020_current\astaguru\Astaguru\Controllers\AdminCmsController.cs:line 2894




